…
## Example

``` r
library(cpsR)
library(dplyr)

basic <- get_basic(
  year = 2021,
  month = 3,
  vars = c("prpertyp", "prtage", "pemlr", "pwcmpwgt")
)

basic
#> # A tibble: 107,334 × 4
#>    prpertyp prtage pemlr pwcmpwgt
#>       <dbl>  <dbl> <dbl>    <dbl>
#>  1        2     55     5    3768.
#>  2        2     59     5    3474.
#>  3        2     26     1    4511.
#>  4        2     68     5    1852.
#>  5        2     69     5    1960.
#>  6        2     41     7    4024.
#>  7        2     41     1    3677.
#>  8        1     12    -1       0 
#>  9        1      8    -1       0 
#> 10        2     70     5    1353.
#> # … with 107,324 more rows
…
